     101  1029  A0001FACO130500132013053120130625201306180000005527300000055273000000000009970110290001         8888PAGO POR TAQUILLA BANCO PROVINCIAL
     101  1029  A0001FACO130600352013063020130725201307300000002597800000025978000000000009970110290001         8888PAGO POR TAQUILLA BANCO PROVINCIAL
     101  1029  A0001FACO130700692013073120130825201308260000005525000000055250000000000009970110290001         8888PAGO POR TAQUILLA BANCO PROVINCIAL
     101  1029  A0001FACO130800372013083120130925201309240000005576900000055769000000000009970110290001         8888PAGO POR TAQUILLA BANCO PROVINCIAL
     101  1029  A0001FACO130901002013093020131025201310220000004475500000044755000000000009970110290001         8888PAGO POR TAQUILLA BANCO PROVINCIAL
     101  1029  A0001FACO131000012013103120131125201311190000005312600000053126000000000009970110290001         8888PAGO POR TAQUILLA BANCO PROVINCIAL
     101  1029  A0002FACO130500142013053120130625201306140000009502900000095029000000000000060110290002         8888PAGO TAQUILLA ADMINISTRADORA YURUARY (EFECTIVO)
     101  1029  A0002FACO130600362013063020130725201307190000003353900000033539000000000000060110290002         8888PAGO TAQUILLA ADMINISTRADORA YURUARY (EFECTIVO)
     101  1029  A0002FACO130700702013073120130825201308210000009498000000094980000000000000060110290002         8888PAGO TAQUILLA ADMINISTRADORA YURUARY (EFECTIVO)
     101  1029  A0002FACO130800382013083120130925201309190000009607000000096070000000000000060110290002         8888PAGO TAQUILLA ADMINISTRADORA YURUARY (EFECTIVO)
     101  1029  A0002FACO130901012013093020131025201310220000007295000000072950000000000000060110290002         8888PAGO TAQUILLA ADMINISTRADORA YURUARY (EFECTIVO)
     101  1029  A0002FACO131000022013103120131125201311220000009052300000000000000000905230060110290002
     101  1029  A0003FACO130403632013043020130525201305290000006284000000062840000000000009970110290003         8888PAGO POR TAQUILLA BANCO PROVINCIAL
     101  1029  A0003FACO130500152013053120130625201306190000008685200000086852000000000009970110290003         8888PAGO POR TAQUILLA BANCO PROVINCIAL
     101  1029  A0003FACO130600372013063020130725201307190000003065300000030653000000000009970110290003         8888PAGO POR TAQUILLA BANCO PROVINCIAL
     101  1029  A0003FACO130700712013073120130825201308210000008680700000086807000000000009970110290003         8888PAGO POR TAQUILLA BANCO PROVINCIAL
     101  1029  A0003FACO130800392013083120130925201309240000008780400000087804000000000009970110290003         8888PAGO POR TAQUILLA BANCO PROVINCIAL
     101  1029  A0003FACO130901022013093020131025201310180000006667300000066673000000000009970110290003         8888PAGO POR TAQUILLA BANCO PROVINCIAL
     101  1029  A0003FACO131000032013103120131125201311210000008273400000082734000000000009970110290003         8888PAGO POR TAQUILLA BANCO PROVINCIAL
     101  1029  A0004FACO130403642013043020130525201306070000003275600000032756000000000000060110290004         8888PAGO TAQUILLA ADMINISTRADORA YURUARY (EFECTIVO)
     101  1029  A0004FACO130500162013053120130625201306070000004560000000045600000000000000060110290004         8888PAGO TAQUILLA ADMINISTRADORA YURUARY (EFECTIVO)
     101  1029  A0004FACO130600382013063020130725201307100000001597800000015978000000000000060110290004         8888PAGO TAQUILLA ADMINISTRADORA YURUARY (EFECTIVO)
     101  1029  A0004FACO130700722013073120130825201310210000004525000000045250000000000000060110290004         8888PAGO TAQUILLA ADMINISTRADORA YURUARY (EFECTIVO)
     101  1029  A0004FACO130800402013083120130925201310210000004622100000046221000000000000060110290004         8888PAGO TAQUILLA ADMINISTRADORA YURUARY (EFECTIVO)
     101  1029  A0004FACO130901032013093020131025201310210000003848500000038485000000000000060110290004         8888PAGO TAQUILLA ADMINISTRADORA YURUARY (EFECTIVO)
     101  1029  A0004FACO131000042013103120131125000000000000004312600000000000000000431260060110290004
     101  1029  A0005FACO120302232012033120120425201308260000005490700000054907000000000000060110290005         8888PAGO TAQUILLA ADMINISTRADORA YURUARY (EFECTIVO)
     101  1029  A0005FACO120400202012043020120525201308260000002521900000025219000000000000060110290005         8888PAGO TAQUILLA ADMINISTRADORA YURUARY (EFECTIVO)
     101  1029  A0005FACO120501262012053120120625201308260000004289800000042898000000000000060110290005         8888PAGO TAQUILLA ADMINISTRADORA YURUARY (EFECTIVO)
     101  1029  A0005FACO120600652012063020120725201308260000003432000000034320000000000000060110290005         8888PAGO TAQUILLA ADMINISTRADORA YURUARY (EFECTIVO)
     101  1029  A0005FACO120709982012073120120825201308260000013023500000130235000000000000060110290005         8888PAGO TAQUILLA ADMINISTRADORA YURUARY (EFECTIVO)
     101  1029  A0005FACO120800512012083120120925201308260000008336500000083365000000000000060110290005         8888PAGO TAQUILLA ADMINISTRADORA YURUARY (EFECTIVO)
     101  1029  A0005FACO120902292012093020121025201308260000010148500000101485000000000000060110290005         8888PAGO TAQUILLA ADMINISTRADORA YURUARY (EFECTIVO)
     101  1029  A0005FACO121002592012103120121125201308260000003902100000039021000000000000060110290005         8888PAGO TAQUILLA ADMINISTRADORA YURUARY (EFECTIVO)
     101  1029  A0005FACO121100142012113020121225201308260000005667200000056672000000000000060110290005         8888PAGO TAQUILLA ADMINISTRADORA YURUARY (EFECTIVO)
     101  1029  A0005FACO121200052012123120130125201308260000004492700000044927000000000000060110290005         8888PAGO TAQUILLA ADMINISTRADORA YURUARY (EFECTIVO)
     101  1029  A0005FACO130100052013013120130225201310250000004917200000000000000000491720060110290005
     101  1029  A0005FACO130200472013022820130325000000000000006451700000000000000000645170060110290005
     101  1029  A0005FACO130300052013033120130425000000000000004998200000000000000000499820060110290005
     101  1029  A0005FACO130403652013043020130525000000000000006174100000000000000000617410060110290005
     101  1029  A0005FACO130500172013053120130625000000000000007912400000000000000000791240060110290005
     101  1029  A0005FACO130600392013063020130725000000000000004315200000000000000000431520060110290005
     101  1029  A0005FACO130700732013073120130825000000000000008145900000000000000000814590060110290005
     101  1029  A0005FACO130800412013083120130925000000000000006766100000000000000000676610060110290005
     101  1029  A0005FACO130901042013093020131025000000000000005524600000000000000000552460060110290005
     101  1029  A0005FACO131000052013103120131125000000000000006736900000000000000000673690060110290005
     101  1029  A0006FACO110403432011043020110525201309060000004069200000040692000000000000060110290006         8888PAGO TAQUILLA ADMINISTRADORA YURUARY (EFECTIVO)
     101  1029  A0006FACO110500832011053120110625201309060000004894900000048949000000000000060110290006         8888PAGO TAQUILLA ADMINISTRADORA YURUARY (EFECTIVO)
     101  1029  A0006FACO110602082011063020110725201309060000005511200000055112000000000000060110290006         8888PAGO TAQUILLA ADMINISTRADORA YURUARY (EFECTIVO)
     101  1029  A0006FACO110700992011073120110825201309060000004606200000046062000000000000060110290006         8888PAGO TAQUILLA ADMINISTRADORA YURUARY (EFECTIVO)
     101  1029  A0006FACO110801532011083120110925201309060000007336400000073364000000000000060110290006         8888PAGO TAQUILLA ADMINISTRADORA YURUARY (EFECTIVO)
     101  1029  A0006FACO110901152011093020111025201309060000006480700000064807000000000000060110290006         8888PAGO TAQUILLA ADMINISTRADORA YURUARY (EFECTIVO)
     101  1029  A0006FACO111002602011103120111125201309060000005492600000054926000000000000060110290006         8888PAGO TAQUILLA ADMINISTRADORA YURUARY (EFECTIVO)
     101  1029  A0006FACO111100922011113020111225201309060000006955900000069559000000000000060110290006         8888PAGO TAQUILLA ADMINISTRADORA YURUARY (EFECTIVO)
     101  1029  A0006FACO111200062011123120120125000000000000009653800000000000000000965380060110290006
     101  1029  A0006FACO120100062012013120120225000000000000008590800000000000000000859080060110290006
     101  1029  A0006FACO120200062012022820120325000000000000010246600000000000000001024660060110290006
     101  1029  A0006FACO120302242012033120120425000000000000009865000000000000000000986500060110290006
     101  1029  A0006FACO120400212012043020120525000000000000006732700000000000000000673270060110290006
     101  1029  A0006FACO120501272012053120120625000000000000009272700000000000000000927270060110290006
     101  1029  A0006FACO120600662012063020120725000000000000008669500000000000000000866950060110290006
     101  1029  A0006FACO120709992012073120120825000000000000017385400000000000000001738540060110290006
     101  1029  A0006FACO120800522012083120120925000000000000012706600000000000000001270660060110290006
     101  1029  A0006FACO120902302012093020121025000000000000015566300000000000000001556630060110290006
     101  1029  A0006FACO121002602012103120121125000000000000008439700000000000000000843970060110290006
     101  1029  A0006FACO121100152012113020121225000000000000011317100000000000000001131710060110290006
     101  1029  A0006FACO121200062012123120130125000000000000009402700000000000000000940270060110290006
     101  1029  A0006FACO130100062013013120130225000000000000010094400000000000000001009440060110290006
     101  1029  A0006FACO130200482013022820130325000000000000012595900000000000000001259590060110290006
     101  1029  A0006FACO130300062013033120130425000000000000010226600000000000000001022660060110290006
     101  1029  A0006FACO130403662013043020130525000000000000011325500000000000000001132550060110290006
     101  1029  A0006FACO130500182013053120130625000000000000014159000000000000000001415900060110290006
     101  1029  A0006FACO130600402013063020130725000000000000008295200000000000000000829520060110290006
     101  1029  A0006FACO130700742013073120130825000000000000014539800000000000000001453980060110290006
     101  1029  A0006FACO130800422013083120130925000000000000014933800000000000000001493380060110290006
     101  1029  A0006FACO130901052013093020131025000000000000011909100000000000000001190910060110290006
     101  1029  A0006FACO131000062013103120131125000000000000013885300000000000000001388530060110290006
     101  1029  A0007FACO130403672013043020130525201306260000006330700000063307000000000009970110290007         8888PAGO POR TAQUILLA BANCO PROVINCIAL
     101  1029  A0007FACO130500192013053120130625201306260000008748000000087480000000000009970110290007         8888PAGO POR TAQUILLA BANCO PROVINCIAL
     101  1029  A0007FACO130600412013063020130725201308230000003065300000030653000000000009970110290007         8888PAGO POR TAQUILLA BANCO PROVINCIAL
     101  1029  A0007FACO130700752013073120130825201308230000008711300000087113000000000009970110290007         8888PAGO POR TAQUILLA BANCO PROVINCIAL
     101  1029  A0007FACO130800432013083120130925201309190000008780400000087804000000000009970110290007         8888PAGO POR TAQUILLA BANCO PROVINCIAL
     101  1029  A0007FACO130901062013093020131025201310250000006667300000066673000000000009970110290007         8888PAGO POR TAQUILLA BANCO PROVINCIAL
     101  1029  A0007FACO131000072013103120131125201311220000008273400000082734000000000009970110290007         8888PAGO POR TAQUILLA BANCO PROVINCIAL
     101  1029  A0008FACO130500202013053120130625201306180000007439700000074397000000000000060110290008         8888PAGO TAQUILLA ADMINISTRADORA YURUARY (EFECTIVO)
     101  1029  A0008FACO130600422013063020130725201307220000003272800000032728000000000000060110290008         8888PAGO TAQUILLA ADMINISTRADORA YURUARY (EFECTIVO)
     101  1029  A0008FACO130700762013073120130825201308220000007436400000074364000000000000060110290008         8888PAGO TAQUILLA ADMINISTRADORA YURUARY (EFECTIVO)
     101  1029  A0008FACO130800442013083120130925201309200000007510300000075103000000000000060110290008         8888PAGO TAQUILLA ADMINISTRADORA YURUARY (EFECTIVO)
     101  1029  A0008FACO130901072013093020131025201310240000005943500000059435000000000000060110290008         8888PAGO TAQUILLA ADMINISTRADORA YURUARY (EFECTIVO)
     101  1029  A0008FACO131000082013103120131125201311250000007134400000071344000000000000060110290008         8888PAGO TAQUILLA ADMINISTRADORA YURUARY (EFECTIVO)
     101  1029  A0009FACO130500212013053120130625201306110000007439700000074397000000000009970110290009         8888PAGO POR TAQUILLA BANCO PROVINCIAL
     101  1029  A0009FACO130600432013063020130725201307100000003272800000032728000000000009970110290009         8888PAGO POR TAQUILLA BANCO PROVINCIAL
     101  1029  A0009FACO130700772013073120130825201308070000007436400000074364000000000009970110290009         8888PAGO POR TAQUILLA BANCO PROVINCIAL
     101  1029  A0009FACO130800452013083120130925201309180000007510300000075103000000000009970110290009         8888PAGO POR TAQUILLA BANCO PROVINCIAL
     101  1029  A0009FACO130901082013093020131025201310150000005943500000059435000000000009970110290009         8888PAGO POR TAQUILLA BANCO PROVINCIAL
     101  1029  A0009FACO131000092013103120131125201311150000007134400000071344000000000009970110290009         8888PAGO POR TAQUILLA BANCO PROVINCIAL
     101  1029  A0010FACO130500222013053120130625201306180000006439700000064397000000000000060110290010         8888PAGO TAQUILLA ADMINISTRADORA YURUARY (EFECTIVO)
     101  1029  A0010FACO130600442013063020130725201307220000002272800000022728000000000000060110290010         8888PAGO TAQUILLA ADMINISTRADORA YURUARY (EFECTIVO)
     101  1029  A0010FACO130700782013073120130825201308210000006436400000064364000000000000060110290010         8888PAGO TAQUILLA ADMINISTRADORA YURUARY (EFECTIVO)
     101  1029  A0010FACO130800462013083120130925201309240000006510300000065103000000000000060110290010         8888PAGO TAQUILLA ADMINISTRADORA YURUARY (EFECTIVO)
     101  1029  A0010FACO130901092013093020131025201310250000004943500000049435000000000000060110290010         8888PAGO TAQUILLA ADMINISTRADORA YURUARY (EFECTIVO)
     101  1029  A0010FACO131000102013103120131125201311270000006134400000061344000000000000060110290010         8888PAGO TAQUILLA ADMINISTRADORA YURUARY (EFECTIVO)
     101  1029  A0011FACO130500232013053120130625201306190000005511500000055115000000000000010110290011         8888PAGO AL COBRADOR (CHEQUE)
     101  1029  A0011FACO130600452013063020130725201307300000001945200000019452000000000000010110290011         8888PAGO AL COBRADOR (CHEQUE)
     101  1029  A0011FACO130700792013073120130825201308220000005508700000055087000000000000010110290011         8888PAGO AL COBRADOR (CHEQUE)
     101  1029  A0011FACO130800472013083120130925201309200000005571900000055719000000000000010110290011         8888PAGO AL COBRADOR (CHEQUE)
     101  1029  A0011FACO130901102013093020131025201310210000020237700000202377000000000000010110290011         8888PAGO AL COBRADOR (CHEQUE)
     101  1029  A0011FACO131000112013103120131125201311200000005250200000052502000000000000010110290011         8888PAGO AL COBRADOR (CHEQUE)
     101  1029  A0012FACO130500242013053120130625201306190000010502900000105029000000000000010110290012         8888PAGO AL COBRADOR (CHEQUE)
     101  1029  A0012FACO130600462013063020130725201307300000004353900000043539000000000000010110290012         8888PAGO AL COBRADOR (CHEQUE)
     101  1029  A0012FACO130700802013073120130825201308220000010498000000104980000000000000010110290012         8888PAGO AL COBRADOR (CHEQUE)
     101  1029  A0012FACO130800482013083120130925201309200000010607000000106070000000000000010110290012         8888PAGO AL COBRADOR (CHEQUE)
     101  1029  A0012FACO130901112013093020131025201310210000008295000000082950000000000000010110290012         8888PAGO AL COBRADOR (CHEQUE)
     101  1029  A0012FACO131000122013103120131125201311200000010052300000100523000000000000010110290012         8888PAGO AL COBRADOR (CHEQUE)
     101  1029  A0013FACO130300132013033120130425201305300000004742600000047426000000000000060110290013         8888PAGO TAQUILLA ADMINISTRADORA YURUARY (EFECTIVO)
     101  1029  A0013FACO130403732013043020130525201307010000006330700000063307000000000000060110290013         8888PAGO TAQUILLA ADMINISTRADORA YURUARY (EFECTIVO)
     101  1029  A0013FACO130500252013053120130625201307290000008748000000087480000000000000060110290013         8888PAGO TAQUILLA ADMINISTRADORA YURUARY (EFECTIVO)
     101  1029  A0013FACO130600472013063020130725201308260000003614200000036142000000000000060110290013         8888PAGO TAQUILLA ADMINISTRADORA YURUARY (EFECTIVO)
     101  1029  A0013FACO130700812013073120130825201309300000008712300000087123000000000000060110290013         8888PAGO TAQUILLA ADMINISTRADORA YURUARY (EFECTIVO)
     101  1029  A0013FACO130800492013083120130925201310310000008867200000088672000000000000060110290013         8888PAGO TAQUILLA ADMINISTRADORA YURUARY (EFECTIVO)
     101  1029  A0013FACO130901122013093020131025000000000000006755100000000000000000675510060110290013
     101  1029  A0013FACO131000132013103120131125000000000000008340000000000000000000834000060110290013
     101  1029  A0014FACO130200562013022820130325201306110000005823300000058233000000000000060110290014         8888PAGO TAQUILLA ADMINISTRADORA YURUARY (EFECTIVO)
     101  1029  A0014FACO130300142013033120130425201306110000003917900000039179000000000000060110290014         8888PAGO TAQUILLA ADMINISTRADORA YURUARY (EFECTIVO)
     101  1029  A0014FACO130403742013043020130525201306110000005581600000055816000000000000060110290014         8888PAGO TAQUILLA ADMINISTRADORA YURUARY (EFECTIVO)
     101  1029  A0014FACO130500262013053120130625201306110000007723900000077239000000000000060110290014         8888PAGO TAQUILLA ADMINISTRADORA YURUARY (EFECTIVO)
     101  1029  A0014FACO130600482013063020130725201308120000002532200000025322000000000009970110290014         8888PAGO POR TAQUILLA BANCO PROVINCIAL
     101  1029  A0014FACO130700822013073120130825201308120000007196400000071964000000000009970110290014         8888PAGO POR TAQUILLA BANCO PROVINCIAL
     101  1029  A0014FACO130800502013083120130925000000000000007253400000000000000000725349970110290014
     101  1029  A0014FACO130901132013093020131025000000000000005580400000000000000000558049970110290014
     101  1029  A0014FACO131000142013103120131125000000000000007417400000000000000000741749970110290014
     101  1029  A0015FACO130403752013043020130525201305290000005429200000054292000000000009970110290015         8888PAGO POR TAQUILLA BANCO PROVINCIAL
     101  1029  A0015FACO130500272013053120130625201306110000007121700000071217000000000009970110290015         8888PAGO POR TAQUILLA BANCO PROVINCIAL
     101  1029  A0015FACO130600492013063020130725201307260000003160600000031606000000000009970110290015         8888PAGO POR TAQUILLA BANCO PROVINCIAL
     101  1029  A0015FACO130700832013073120130825201309300000007618600000076186000000000009970110290015         8888PAGO POR TAQUILLA BANCO PROVINCIAL
     101  1029  A0015FACO130800512013083120130925201310140000007688800000076888000000000000060110290015         8888PAGO TAQUILLA ADMINISTRADORA YURUARY (CHEQUE)
     101  1029  A0015FACO130901142013093020131025201311050000006199400000061994000000000000060110290015         8888PAGO TAQUILLA ADMINISTRADORA YURUARY (EFECTIVO)
     101  1029  A0015FACO131000152013103120131125201311110000007331500000073315000000000000060110290015         8888PAGO TAQUILLA ADMINISTRADORA YURUARY (EFECTIVO)
     101  1029  A0016FACO130500282013053120130625201306210000006121700000061217000000000009970110290016         8888PAGO POR TAQUILLA BANCO PROVINCIAL
     101  1029  A0016FACO130600502013063020130725201307180000002160600000021606000000000009970110290016         8888PAGO POR TAQUILLA BANCO PROVINCIAL
     101  1029  A0016FACO130700842013073120130825201309170000006118600000061186000000000009970110290016         8888PAGO POR TAQUILLA BANCO PROVINCIAL
     101  1029  A0016FACO130800522013083120130925201309170000006249900000062499000000000009970110290016         8888PAGO POR TAQUILLA BANCO PROVINCIAL
     101  1029  A0016FACO130901152013093020131025201311250000004699400000046994000000000009970110290016         8888PAGO POR TAQUILLA BANCO PROVINCIAL
     101  1029  A0016FACO131000162013103120131125201311250000005878400000058784000000000009970110290016         8888PAGO POR TAQUILLA BANCO PROVINCIAL
     101  1029  A0017FACO130403772013043020130525201307180000003987700000039877000000000009970110290017         8888PAGO POR TAQUILLA BANCO PROVINCIAL
     101  1029  A0017FACO130500292013053120130625201307180000005551300000055513000000000009970110290017         8888PAGO POR TAQUILLA BANCO PROVINCIAL
     101  1029  A0017FACO130600512013063020130725201307180000002330000000023300000000000009970110290017         8888PAGO POR TAQUILLA BANCO PROVINCIAL
     101  1029  A0017FACO130700852013073120130825201310110000005508700000055087000000000009970110290017         8888PAGO POR TAQUILLA BANCO PROVINCIAL
     101  1029  A0017FACO130800532013083120130925201310110000005626900000056269000000000009970110290017         8888PAGO POR TAQUILLA BANCO PROVINCIAL
     101  1029  A0017FACO130901162013093020131025201310110000004663400000046634000000000009970110290017         8888PAGO POR TAQUILLA BANCO PROVINCIAL
     101  1029  A0017FACO131000172013103120131125000000000000005250200000000000000000525029970110290017
     101  1029  A0018FACO130500302013053120130625201307040000010502900000105029000000000000060110290018         8888PAGO TAQUILLA ADMINISTRADORA YURUARY (EFECTIVO)
     101  1029  A0018FACO130600522013063020130725201307040000004458900000044589000000000000060110290018         8888PAGO TAQUILLA ADMINISTRADORA YURUARY (EFECTIVO)
     101  1029  A0018FACO130700862013073120130825201309160000010498000000104980000000000000060110290018         8888PAGO TAQUILLA ADMINISTRADORA YURUARY (EFECTIVO)
     101  1029  A0018FACO130800542013083120130925201309160000010711900000107119000000000000060110290018         8888PAGO TAQUILLA ADMINISTRADORA YURUARY (EFECTIVO)
     101  1029  A0018FACO130901172013093020131025201310160000008295000000082950000000000009970110290018         8888PAGO POR TAQUILLA BANCO PROVINCIAL
     101  1029  A0018FACO131000182013103120131125201311210000010052300000100523000000000009970110290018         8888PAGO POR TAQUILLA BANCO PROVINCIAL
     101  1029  A0019FACO130500312013053120130625201306260000008685200000086852000000000009970110290019         8888PAGO POR TAQUILLA BANCO PROVINCIAL
     101  1029  A0019FACO130600532013063020130725201307230000003065300000030653000000000009970110290019         8888PAGO POR TAQUILLA BANCO PROVINCIAL
     101  1029  A0019FACO130700872013073120130825201308220000008680700000086807000000000009970110290019         8888PAGO POR TAQUILLA BANCO PROVINCIAL
     101  1029  A0019FACO130800552013083120130925201309250000008780400000087804000000000009970110290019         8888PAGO POR TAQUILLA BANCO PROVINCIAL
     101  1029  A0019FACO130901182013093020131025201310280000006667300000066673000000000009970110290019         8888PAGO POR TAQUILLA BANCO PROVINCIAL
     101  1029  A0019FACO131000192013103120131125201311220000008273400000082734000000000009970110290019         8888PAGO POR TAQUILLA BANCO PROVINCIAL
     101  1029  A0020FACO130300202013033120130425201306200000004261900000042619000000000009970110290020         8888PAGO POR TAQUILLA BANCO PROVINCIAL
     101  1029  A0020FACO130403802013043020130525201307180000005712200000057122000000000000060110290020         8888PAGO TAQUILLA ADMINISTRADORA YURUARY (CHEQUE)
     101  1029  A0020FACO130500322013053120130625201307180000007552300000075523000000000000060110290020         8888PAGO TAQUILLA ADMINISTRADORA YURUARY (CHEQUE)
     101  1029  A0020FACO130600542013063020130725201308230000003009100000030091000000000009970110290020         8888PAGO POR TAQUILLA BANCO PROVINCIAL
     101  1029  A0020FACO130700882013073120130825201308230000007197400000071974000000000009970110290020         8888PAGO POR TAQUILLA BANCO PROVINCIAL
     101  1029  A0020FACO130800562013083120130925201310170000007253400000072534000000000009970110290020         8888PAGO POR TAQUILLA BANCO PROVINCIAL
     101  1029  A0020FACO130901192013093020131025201310170000005580400000055804000000000009970110290020         8888PAGO POR TAQUILLA BANCO PROVINCIAL
     101  1029  A0020FACO131000202013103120131125000000000000006834600000000000000000683469970110290020
     101  1029  A0021FACO130500332013053120130625201306210000008621700000086217000000000009970110290021         8888PAGO POR TAQUILLA BANCO PROVINCIAL
     101  1029  A0021FACO130600552013063020130725201307160000004660600000046606000000000009970110290021         8888PAGO POR TAQUILLA BANCO PROVINCIAL
     101  1029  A0021FACO130700892013073120130825201308210000008618600000086186000000000009970110290021         8888PAGO POR TAQUILLA BANCO PROVINCIAL
     101  1029  A0021FACO130800572013083120130925201309200000008688800000086888000000000009970110290021         8888PAGO POR TAQUILLA BANCO PROVINCIAL
     101  1029  A0021FACO130901202013093020131025201310210000007199400000071994000000000009970110290021         8888PAGO POR TAQUILLA BANCO PROVINCIAL
     101  1029  A0021FACO131000212013103120131125201311120000008331500000083315000000000009970110290021         8888PAGO POR TAQUILLA BANCO PROVINCIAL
     101  1029  A0022FACO130500342013053120130625201307110000006121700000061217000000000009970110290022         8888PAGO POR TAQUILLA BANCO PROVINCIAL
     101  1029  A0022FACO130600562013063020130725201307110000002221800000022218000000000009970110290022         8888PAGO POR TAQUILLA BANCO PROVINCIAL
     101  1029  A0022FACO130700902013073120130825201309200000006118600000061186000000000000010110290022         8888PAGO AL COBRADOR (CHEQUE)
     101  1029  A0022FACO130800582013083120130925201309200000006249900000062499000000000000010110290022         8888PAGO AL COBRADOR (CHEQUE)
     101  1029  A0022FACO130901212013093020131025201311180000004699400000046994000000000009970110290022         8888PAGO POR TAQUILLA BANCO PROVINCIAL
     101  1029  A0022FACO131000222013103120131125201311180000005878400000058784000000000009970110290022         8888PAGO POR TAQUILLA BANCO PROVINCIAL
     101  1029  A0023FACO130500352013053120130625201306190000006511500000065115000000000000010110290023         8888PAGO AL COBRADOR (CHEQUE)
     101  1029  A0023FACO130600572013063020130725201307250000002945200000029452000000000009970110290023         8888PAGO POR TAQUILLA BANCO PROVINCIAL
     101  1029  A0023FACO130700912013073120130825201308210000005508700000055087000000000000010110290023         8888PAGO AL COBRADOR (CHEQUE)
     101  1029  A0023FACO130800592013083120130925201309200000005571900000055719000000000000010110290023         8888PAGO AL COBRADOR (CHEQUE)
     101  1029  A0023FACO130901222013093020131025201311200000004231000000042310000000000000010110290023         8888PAGO AL COBRADOR (CHEQUE)
     101  1029  A0023FACO131000232013103120131125000000000000005292500000000000000000529250010110290023
     101  1029  A0024FACO130403842013043020130525201306140000006926700000069267000000000000060110290024         8888PAGO TAQUILLA ADMINISTRADORA YURUARY (CHEQUE)
     101  1029  A0024FACO130500362013053120130625201306140000009571600000095716000000000000060110290024         8888PAGO TAQUILLA ADMINISTRADORA YURUARY (CHEQUE)
     101  1029  A0024FACO130600582013063020130725201307300000003353900000033539000000000000010110290024         8888PAGO AL COBRADOR (CHEQUE)
     101  1029  A0024FACO130700922013073120130825201309200000009498000000094980000000000000010110290024         8888PAGO AL COBRADOR (CHEQUE)
     101  1029  A0024FACO130800602013083120130925201309200000009701900000097019000000000000010110290024         8888PAGO AL COBRADOR (CHEQUE)
     101  1029  A0024FACO130901232013093020131025201311200000007295000000072950000000000000010110290024         8888PAGO AL COBRADOR (CHEQUE)
     101  1029  A0024FACO131000242013103120131125201311200000009125200000091252000000000000010110290024         8888PAGO AL COBRADOR (CHEQUE)
     101  1029  A0025FACO130500372013053120130625201306200000009685200000096852000000000009970110290025         8888PAGO POR TAQUILLA BANCO PROVINCIAL
     101  1029  A0025FACO130600592013063020130725201307190000004065300000040653000000000009970110290025         8888PAGO POR TAQUILLA BANCO PROVINCIAL
     101  1029  A0025FACO130700932013073120130825201308210000009680700000096807000000000009970110290025         8888PAGO POR TAQUILLA BANCO PROVINCIAL
     101  1029  A0025FACO130800612013083120130925201309240000009780400000097804000000000009970110290025         8888PAGO POR TAQUILLA BANCO PROVINCIAL
     101  1029  A0025FACO130901242013093020131025201310220000007667300000076673000000000009970110290025         8888PAGO POR TAQUILLA BANCO PROVINCIAL
     101  1029  A0025FACO131000252013103120131125201311220000009273400000092734000000000009970110290025         8888PAGO POR TAQUILLA BANCO PROVINCIAL
     101  1029  A0026FACO130500382013053120130625201306260000009174800000091748000000000009970110290026         8888PAGO POR TAQUILLA BANCO PROVINCIAL
     101  1029  A0026FACO130600602013063020130725201307250000004532200000045322000000000009970110290026         8888PAGO POR TAQUILLA BANCO PROVINCIAL
     101  1029  A0026FACO130700942013073120130825201308260000009171100000091711000000000009970110290026         8888PAGO POR TAQUILLA BANCO PROVINCIAL
     101  1029  A0026FACO130800622013083120130925201309250000009253400000092534000000000009970110290026         8888PAGO POR TAQUILLA BANCO PROVINCIAL
     101  1029  A0026FACO130901252013093020131025201310230000007507900000075079000000000009970110290026         8888PAGO POR TAQUILLA BANCO PROVINCIAL
     101  1029  A0026FACO131000262013103120131125201311260000008834600000088346000000000009970110290026         8888PAGO POR TAQUILLA BANCO PROVINCIAL
     101  1029  A0027FACO130500392013053120130625201306250000006121700000061217000000000000060110290027         8888PAGO TAQUILLA ADMINISTRADORA YURUARY (EFECTIVO)
     101  1029  A0027FACO130600612013063020130725201307250000002160600000021606000000000000060110290027         8888PAGO TAQUILLA ADMINISTRADORA YURUARY (EFECTIVO)
     101  1029  A0027FACO130700952013073120130825201308290000006118600000061186000000000000060110290027         8888PAGO TAQUILLA ADMINISTRADORA YURUARY (EFECTIVO)
     101  1029  A0027FACO130800632013083120130925201310030000006188800000061888000000000000060110290027         8888PAGO TAQUILLA ADMINISTRADORA YURUARY (EFECTIVO)
     101  1029  A0027FACO130901262013093020131025201310140000004761200000047612000000000000060110290027         8888PAGO TAQUILLA ADMINISTRADORA YURUARY (EFECTIVO)
     101  1029  A0027FACO131000272013103120131125201311250000005831500000058315000000000000060110290027         8888PAGO TAQUILLA ADMINISTRADORA YURUARY (EFECTIVO)
     101  1029  A0028FACO130500402013053120130625201307250000008621700000086217000000000009970110290028         8888PAGO POR TAQUILLA BANCO PROVINCIAL
     101  1029  A0028FACO130600622013063020130725201307250000004746800000047468000000000009970110290028         8888PAGO POR TAQUILLA BANCO PROVINCIAL
     101  1029  A0028FACO130700962013073120130825201309300000009118600000091186000000000000060110290028         8888PAGO TAQUILLA ADMINISTRADORA YURUARY (EFECTIVO)
     101  1029  A0028FACO130800642013083120130925201309300000009279900000092799000000000000060110290028         8888PAGO TAQUILLA ADMINISTRADORA YURUARY (EFECTIVO)
     101  1029  A0028FACO130901272013093020131025000000000000007699400000000000000000769940060110290028
     101  1029  A0028FACO131000282013103120131125000000000000008908400000000000000000890840060110290028
     101  1029  B0029FACO130500412013053120130625201306190000015627500000156275000000000000010110290029         8888PAGO AL COBRADOR (CHEQUE)
     101  1029  B0029FACO130600632013063020130725201307300000006809600000068096000000000000010110290029         8888PAGO AL COBRADOR (CHEQUE)
     101  1029  B0029FACO130700972013073120130825201308210000015620400000156204000000000000010110290029         8888PAGO AL COBRADOR (CHEQUE)
     101  1029  B0029FACO130800652013083120130925201309200000015776800000157768000000000000010110290029         8888PAGO AL COBRADOR (CHEQUE)
     101  1029  B0029FACO130901282013093020131025201310210000012461400000124614000000000000010110290029         8888PAGO AL COBRADOR (CHEQUE)
     101  1029  B0029FACO131000292013103120131125201311200000014981300000149813000000000000010110290029         8888PAGO AL COBRADOR (CHEQUE)
     101  1029  B0030FACO130300302013033120130425201306190000004293200000042932000000000000010110290030         8888PAGO AL COBRADOR (DEPOSITO)
     101  1029  B0030FACO130403902013043020130525201306190000004472100000044721000000000000010110290030         8888PAGO AL COBRADOR (DEPOSITO)
     101  1029  B0030FACO130500422013053120130625201306190000006483300000064833000000000000010110290030         8888PAGO AL COBRADOR (DEPOSITO)
     101  1029  B0030FACO130600642013063020130725201308210000002160600000021606000000000000060110290030         8888PAGO TAQUILLA ADMINISTRADORA YURUARY (EFECTIVO)
     101  1029  B0030FACO130700982013073120130825201308210000007640200000076402000000000000060110290030         8888PAGO TAQUILLA ADMINISTRADORA YURUARY (EFECTIVO)
     101  1029  B0030FACO130800662013083120130925201310240000007688800000076888000000000000060110290030         8888PAGO TAQUILLA ADMINISTRADORA YURUARY (EFECTIVO)
     101  1029  B0030FACO130901292013093020131025201310240000006276200000062762000000000000060110290030         8888PAGO TAQUILLA ADMINISTRADORA YURUARY (EFECTIVO)
     101  1029  B0030FACO131000302013103120131125000000000000007331500000000000000000733150060110290030
     101  1029  B0031FACO100106892010013120100225000000000000001529900000000000000000152990060110290031
     101  1029  B0031FACO100209292010022820100325000000000000001608900000000000000000160890060110290031
     101  1029  B0031FACO100310702010033120100425000000000000001422000000000000000000142200060110290031
     101  1029  B0031FACO100405932010043020100525000000000000001413300000000000000000141330060110290031
     101  1029  B0031FACO100507842010053120100625000000000000001221600000000000000000122160060110290031
     101  1029  B0031FACO100605262010063020100725000000000000001303800000000000000000130380060110290031
     101  1029  B0031FACO100703822010073120100825000000000000001390900000000000000000139090060110290031
     101  1029  B0031FACO100802152010083120100925000000000000001481900000000000000000148190060110290031
     101  1029  B0031FACO100904882010093020101025000000000000001545500000000000000000154550060110290031
     101  1029  B0031FACO101001422010103120101125000000000000001124700000000000000000112470060110290031
     101  1029  B0031FACO101100312010113020101225000000000000001527600000000000000000152760060110290031
     101  1029  B0031FACO101201502010123120110125000000000000001601300000000000000000160130060110290031
     101  1029  B0031FACO110100312011013120110225000000000000001349000000000000000000134900060110290031
     101  1029  B0031FACO110205002011022820110325000000000000002311100000000000000000231110060110290031
     101  1029  B0031FACO110301892011033120110425000000000000002005900000000000000000200590060110290031
     101  1029  B0031FACO110403682011043020110525000000000000001711800000000000000000171180060110290031
     101  1029  B0031FACO110501082011053120110625000000000000002002600000000000000000200260060110290031
     101  1029  B0031FACO110602332011063020110725000000000000002219700000000000000000221970060110290031
     101  1029  B0031FACO110701242011073120110825000000000000001901000000000000000000190100060110290031
     101  1029  B0031FACO110801782011083120110925000000000000002862400000000000000000286240060110290031
     101  1029  B0031FACO110901402011093020111025000000000000002561000000000000000000256100060110290031
     101  1029  B0031FACO111002852011103120111125000000000000002213100000000000000000221310060110290031
     101  1029  B0031FACO111101172011113020111225000000000000002728400000000000000000272840060110290031
     101  1029  B0031FACO111200312011123120120125000000000000005247200000000000000000524720060110290031
     101  1029  B0031FACO120100312012013120120225000000000000004921600000000000000000492160060110290031
     101  1029  B0031FACO120200312012022820120325000000000000005553400000000000000000555340060110290031
     101  1029  B0031FACO120302492012033120120425000000000000005467500000000000000000546750060110290031
     101  1029  B0031FACO120400462012043020120525000000000000002793400000000000000000279340060110290031
     101  1029  B0031FACO120501522012053120120625000000000000003687800000000000000000368780060110290031
     101  1029  B0031FACO120600912012063020120725000000000000003993700000000000000000399370060110290031
     101  1029  B0031FACO120710242012073120120825000000000000013038900000000000000001303890060110290031
     101  1029  B0031FACO120800772012083120120925000000000000008346300000000000000000834630060110290031
     101  1029  B0031FACO120902552012093020121025000000000000009450400000000000000000945040060110290031
     101  1029  B0031FACO121002852012103120121125000000000000003798800000000000000000379880060110290031
     101  1029  B0031FACO121100402012113020121225000000000000004812100000000000000000481210060110290031
     101  1029  B0031FACO121200312012123120130125000000000000004137900000000000000000413790060110290031
     101  1029  B0031FACO130100312013013120130225000000000000004381500000000000000000438150060110290031
     101  1029  B0031FACO130200732013022820130325000000000000005262300000000000000000526230060110290031
     101  1029  B0031FACO130300312013033120130425000000000000004427900000000000000000442790060110290031
     101  1029  B0031FACO130403912013043020130525000000000000005102900000000000000000510290060110290031
     101  1029  B0031FACO130500432013053120130625000000000000006100900000000000000000610090060110290031
     101  1029  B0031FACO130600652013063020130725000000000000004035900000000000000000403590060110290031
     101  1029  B0031FACO130700992013073120130825000000000000006234800000000000000000623480060110290031
     101  1029  B0031FACO130800672013083120130925000000000000006373600000000000000000637360060110290031
     101  1029  B0031FACO130901302013093020131025000000000000005660900000000000000000566090060110290031
     101  1029  B0031FACO131000312013103120131125000000000000006356800000000000000000635680060110290031
     101  1029  C0001FACO130403922013043020130525201307300000000849700000008497000000000000010110290032         8888PAGO AL COBRADOR (CHEQUE)
     101  1029  C0001FACO130500442013053120130625201307300000001126600000011266000000000000010110290032         8888PAGO AL COBRADOR (CHEQUE)
     101  1029  C0001FACO130600662013063020130725201307300000000744400000007444000000000000010110290032         8888PAGO AL COBRADOR (CHEQUE)
     101  1029  C0001FACO130701002013073120130825201308210000001214600000012146000000000000010110290032         8888PAGO AL COBRADOR (CHEQUE)
     101  1029  C0001FACO130800682013083120130925201309250000001225300000012253000000000000010110290032         8888PAGO AL COBRADOR (DEPOSITO)
     101  1029  C0001FACO130901312013093020131025201310210000000985700000009857000000000000010110290032         8888PAGO AL COBRADOR (DEPOSITO)
     101  1029  C0001FACO131000322013103120131125000000000000002252800000000000000000225280010110290032
     101  1029  C0002FACO130300332013033120130425201307300000000846200000008462000000000000010110290033         8888PAGO AL COBRADOR (CHEQUE)
     101  1029  C0002FACO130403932013043020130525201307300000000949300000009493000000000000010110290033         8888PAGO AL COBRADOR (CHEQUE)
     101  1029  C0002FACO130500452013053120130625201307300000001391800000013918000000000000010110290033         8888PAGO AL COBRADOR (CHEQUE)
     101  1029  C0002FACO130600672013063020130725201307300000000842100000008421000000000000010110290033         8888PAGO AL COBRADOR (CHEQUE)
     101  1029  C0002FACO130701012013073120130825201310140000001345100000013451000000000009970110290033         8888PAGO POR TAQUILLA BANCO PROVINCIAL
     101  1029  C0002FACO130800692013083120130925201310140000001370400000013704000000000009970110290033         8888PAGO POR TAQUILLA BANCO PROVINCIAL
     101  1029  C0002FACO130901322013093020131025201310140000001272600000012726000000000009970110290033         8888PAGO POR TAQUILLA BANCO PROVINCIAL
     101  1029  C0002FACO131000332013103120131125201311140000001288900000012889000000000000060110290033         8888PAGO TAQUILLA ADMINISTRADORA YURUARY (EFECTIVO)
     101  1029  C0003FACO130403942013043020130525201307300000001584300000015843000000000000010110290034         8888PAGO AL COBRADOR (CHEQUE)
     101  1029  C0003FACO130500462013053120130625201307300000002100800000021008000000000000010110290034         8888PAGO AL COBRADOR (CHEQUE)
     101  1029  C0003FACO130600682013063020130725201307300000001301700000013017000000000000010110290034         8888PAGO AL COBRADOR (CHEQUE)
     101  1029  C0003FACO130701022013073120130825201308210000002264700000022647000000000000010110290034         8888PAGO AL COBRADOR (CHEQUE)
     101  1029  C0003FACO130800702013083120130925201309200000002284700000022847000000000000010110290034         8888PAGO AL COBRADOR (CHEQUE)
     101  1029  C0003FACO130901332013093020131025201311200000001838000000018380000000000000010110290034         8888PAGO AL COBRADOR (CHEQUE)
     101  1029  C0003FACO131000342013103120131125201311200000002188400000021884000000000000010110290034         8888PAGO AL COBRADOR (CHEQUE)
